Models
…
Your Turn 1

Change the working directory to 04-Models.

Then import wages.xlsx as wages and copy the code to your setup chunk.

Be sure to set NA: to NA.

wages

## # A tibble: 5,266 x 8
##    income height weight   age marital  sex    education  afqt
##     <int>  <dbl>  <int> <int> <chr>    <chr>      <int> <dbl>
##  1  19000     60    155    53 married  female        13  6.84
##  2  35000     70    156    51 married  female        10 49.4 
##  3 105000     65    195    52 married  male          16 99.4 
##  4  40000     63    197    54 married  female        14 44.0 
##  5  75000     66    190    49 married  male          14 59.7 
##  6 102000     68    200    49 divorced female        18 98.8 
##  7  70000     64    160    54 divorced female        12 50.3 
##  8  60000     69    162    55 divorced male          12 89.7 
##  9 150000     69    194    54 divorced male          13 96.0 
## 10 115000     64    145    53 married  female        16 67.0 
## #  with 5,256 more rows
…
wages %>%
  spread_residuals(mod_h, mod_eh, mod_ehs)

## # A tibble: 5,266 x 11
##    income height weight   age marital sex   education  afqt  mod_h mod_eh
##     <int>  <dbl>  <int> <int> <chr>   <fct>     <int> <dbl>  <dbl>  <dbl>
##  1  19000     60    155    53 married fema        13  6.84 -0.250 -0.198
##  2  35000     70    156    51 married fema        10 49.4  -0.159  0.346
##  3 105000     65    195    52 married male         16 99.4   1.20   0.854
##  4  40000     63    197    54 married fema        14 44.0   0.339  0.263
##  5  75000     66    190    49 married male         14 59.7   0.811  0.747
##  6 102000     68    200    49 divorc fema        18 98.8   1.01   0.403
##  7  70000     64    160    54 divorc fema        12 50.3   0.846  1.05 
##  8  60000     69    162    55 divorc male         12 89.7   0.432  0.656
##  9 150000     69    194    54 divorc male         13 96.0   1.35   1.43 
## 10 115000     64    145    53 married fema        16 67.0   1.34   0.993
## #  with 5,256 more rows, and 1 more variable: mod_ehs <dbl>

wages %>% 
  gather_residuals(mod_h, mod_eh, mod_ehs)

## # A tibble: 15,798 x 10
##    model income height weight   age marital  sex    education  afqt  resid
##    <chr>  <int>  <dbl>  <int> <int> <chr>    <fct>      <int> <dbl>  <dbl>
##  1 mod_h  19000     60    155    53 married  female        13  6.84 -0.250
##  2 mod_h  35000     70    156    51 married  female        10 49.4  -0.159
##  3 mod_h 105000     65    195    52 married  male          16 99.4   1.20 
##  4 mod_h  40000     63    197    54 married  female        14 44.0   0.339
##  5 mod_h  75000     66    190    49 married  male          14 59.7   0.811
##  6 mod_h 102000     68    200    49 divorced female        18 98.8   1.01 
##  7 mod_h  70000     64    160    54 divorced female        12 50.3   0.846
##  8 mod_h  60000     69    162    55 divorced male          12 89.7   0.432
##  9 mod_h 150000     69    194    54 divorced male          13 96.0   1.35 
## 10 mod_h 115000     64    145    53 married  female        16 67.0   1.34 
## #  with 15,788 more rows
…
